…
Read features from available layers using the `fwa_read()` function:

``` r
library(ggplot2)
library(magrittr)
library(fwabc)

fwa_read(c("SKGT", 356439092), layer = "stream-network") 
#> Simple feature collection with 6913 features and 27 fields
#> geometry type:  LINESTRING
#> dimension:      XYZ
#> bbox:           xmin: 1339667 ymin: 454237.7 xmax: 1378650 ymax: 490447
#> epsg (SRID):    3005
#> proj4string:    +proj=aea +lat_1=50 +lat_2=58.5 +lat_0=45 +lon_0=-126 +x_0=1000000 +y_0=0 +ellps=GRS80 +towgs84=0,0,0,0,0,0,0 +units=m +no_defs
#> # A tibble: 6,913 x 28
#>    id    LINEAR_FEATURE_… WATERSHED_GROUP… EDGE_TYPE BLUE_LINE_KEY
#>    <chr>            <int>            <int>     <int>         <int>
#>  1 WHSE…        707548567              185      1000     356456840
#>  2 WHSE…        707562097              185      1000     356527445
#>  3 WHSE…        707555146              185      1000     356563680
#>  4 WHSE…        707549133              185      1000     356563266
#>  5 WHSE…        707556968              185      1000     356524850
#>  6 WHSE…        707562668              185      1000     356447754
#>  7 WHSE…        707548310              185      1050     356546082
#>  8 WHSE…        707555736              185      1000     356568843
#>  9 WHSE…        707566526              185      1000     356539239
#> 10 WHSE…        707549607              185      1000     356567543
#> # … with 6,903 more rows, and 23 more variables: WATERSHED_KEY <int>,
#> #   FWA_WATERSHED_CODE <chr>, LOCAL_WATERSHED_CODE <chr>,
#> #   WATERSHED_GROUP_CODE <chr>, DOWNSTREAM_ROUTE_MEASURE <dbl>,
#> #   LENGTH_METRE <dbl>, FEATURE_SOURCE <chr>, GNIS_ID <int>,
#> #   GNIS_NAME <chr>, LEFT_RIGHT_TRIBUTARY <chr>, STREAM_ORDER <int>,
#> #   STREAM_MAGNITUDE <int>, WATERBODY_KEY <int>, BLUE_LINE_KEY_50K <int>,
#> #   WATERSHED_CODE_50K <chr>, WATERSHED_KEY_50K <int>,
#> #   WATERSHED_GROUP_CODE_50K <chr>, GRADIENT <chr>, FEATURE_CODE <chr>,
#> #   OBJECTID <int>, SE_ANNO_CAD_DATA <chr>, FEATURE_LENGTH_M <dbl>,
…
